^H:\ADVANCED GAMES PROGRAMMING\LAB WORK\SDL TEST\SDL TEST\DEBUG\MAIN.OBJ
H:\ADVANCED GAMES PROGRAMMING\LAB WORK\SDL TEST\DEBUG\SDL TEST.ILK
H:\ADVANCED GAMES PROGRAMMING\LAB WORK\SDL TEST\DEBUG\SDL TEST.EXE
H:\ADVANCED GAMES PROGRAMMING\LAB WORK\SDL TEST\DEBUG\SDL TEST.PDB
