^C:\USERS\R2D2\DOCUMENTS\UNI STUFF\YEAR 3\ADVANCED GAMES PROGRAMING\LABS\AGP2014 BASE CODE VS 2013\AGP2014 BASE CODE VS 2013\AGP2014 BASE CODE VS 2013\CUBEMAP.CPP|C:\USERS\R2D2\DOCUMENTS\UNI STUFF\YEAR 3\ADVANCED GAMES PROGRAMING\LABS\AGP2014 BASE CODE VS 2013\AGP2014 BASE CODE VS 2013\AGP2014 BASE CODE VS 2013\ENVIRONMENTMAPPEDMODEL.CPP|C:\USERS\R2D2\DOCUMENTS\UNI STUFF\YEAR 3\ADVANCED GAMES PROGRAMING\LABS\AGP2014 BASE CODE VS 2013\AGP2014 BASE CODE VS 2013\AGP2014 BASE CODE VS 2013\FRAMEBUFFEROBJECT.CPP|C:\USERS\R2D2\DOCUMENTS\UNI STUFF\YEAR 3\ADVANCED GAMES PROGRAMING\LABS\AGP2014 BASE CODE VS 2013\AGP2014 BASE CODE VS 2013\AGP2014 BASE CODE VS 2013\FREECAMERA.CPP|C:\USERS\R2D2\DOCUMENTS\UNI STUFF\YEAR 3\ADVANCED GAMES PROGRAMING\LABS\AGP2014 BASE CODE VS 2013\AGP2014 BASE CODE VS 2013\AGP2014 BASE CODE VS 2013\LIGHT.CPP|C:\USERS\R2D2\DOCUMENTS\UNI STUFF\YEAR 3\ADVANCED GAMES PROGRAMING\LABS\AGP2014 BASE CODE VS 2013\AGP2014 BASE CODE VS 2013\AGP2014 BASE CODE VS 2013\MAIN.CPP|C:\USERS\R2D2\DOCUMENTS\UNI STUFF\YEAR 3\ADVANCED GAMES PROGRAMING\LABS\AGP2014 BASE CODE VS 2013\AGP2014 BASE CODE VS 2013\AGP2014 BASE CODE VS 2013\MATERIAL.CPP|C:\USERS\R2D2\DOCUMENTS\UNI STUFF\YEAR 3\ADVANCED GAMES PROGRAMING\LABS\AGP2014 BASE CODE VS 2013\AGP2014 BASE CODE VS 2013\AGP2014 BASE CODE VS 2013\MD2MODEL.CPP|C:\USERS\R2D2\DOCUMENTS\UNI STUFF\YEAR 3\ADVANCED GAMES PROGRAMING\LABS\AGP2014 BASE CODE VS 2013\AGP2014 BASE CODE VS 2013\AGP2014 BASE CODE VS 2013\MODEL.CPP|C:\USERS\R2D2\DOCUMENTS\UNI STUFF\YEAR 3\ADVANCED GAMES PROGRAMING\LABS\AGP2014 BASE CODE VS 2013\AGP2014 BASE CODE VS 2013\AGP2014 BASE CODE VS 2013\PARTICLESYSTEM.CPP|C:\USERS\R2D2\DOCUMENTS\UNI STUFF\YEAR 3\ADVANCED GAMES PROGRAMING\LABS\AGP2014 BASE CODE VS 2013\AGP2014 BASE CODE VS 2013\AGP2014 BASE CODE VS 2013\PBOBUFFER.CPP|C:\USERS\R2D2\DOCUMENTS\UNI STUFF\YEAR 3\ADVANCED GAMES PROGRAMING\LABS\AGP2014 BASE CODE VS 2013\AGP2014 BASE CODE VS 2013\AGP2014 BASE CODE VS 2013\RT3D.CPP|C:\USERS\R2D2\DOCUMENTS\UNI STUFF\YEAR 3\ADVANCED GAMES PROGRAMING\LABS\AGP2014 BASE CODE VS 2013\AGP2014 BASE CODE VS 2013\AGP2014 BASE CODE VS 2013\RT3DOBJLOADER.CPP|C:\USERS\R2D2\DOCUMENTS\UNI STUFF\YEAR 3\ADVANCED GAMES PROGRAMING\LABS\AGP2014 BASE CODE VS 2013\AGP2014 BASE CODE VS 2013\AGP2014 BASE CODE VS 2013\SHADER.CPP|C:\USERS\R2D2\DOCUMENTS\UNI STUFF\YEAR 3\ADVANCED GAMES PROGRAMING\LABS\AGP2014 BASE CODE VS 2013\AGP2014 BASE CODE VS 2013\AGP2014 BASE CODE VS 2013\SKYBOX.CPP|C:\USERS\R2D2\DOCUMENTS\UNI STUFF\YEAR 3\ADVANCED GAMES PROGRAMING\LABS\AGP2014 BASE CODE VS 2013\AGP2014 BASE CODE VS 2013\AGP2014 BASE CODE VS 2013\TEXTURE.CPP
C:\USERS\R2D2\DOCUMENTS\UNI STUFF\YEAR 3\ADVANCED GAMES PROGRAMING\LABS\AGP2014 BASE CODE VS 2013\AGP2014 BASE CODE VS 2013\AGP2014 BASE CODE VS 2013\DEBUG\VC120.PDB
C:\USERS\R2D2\DOCUMENTS\UNI STUFF\YEAR 3\ADVANCED GAMES PROGRAMING\LABS\AGP2014 BASE CODE VS 2013\AGP2014 BASE CODE VS 2013\AGP2014 BASE CODE VS 2013\DEBUG\VC120.IDB
C:\USERS\R2D2\DOCUMENTS\UNI STUFF\YEAR 3\ADVANCED GAMES PROGRAMING\LABS\AGP2014 BASE CODE VS 2013\AGP2014 BASE CODE VS 2013\AGP2014 BASE CODE VS 2013\DEBUG\CUBEMAP.OBJ
C:\USERS\R2D2\DOCUMENTS\UNI STUFF\YEAR 3\ADVANCED GAMES PROGRAMING\LABS\AGP2014 BASE CODE VS 2013\AGP2014 BASE CODE VS 2013\AGP2014 BASE CODE VS 2013\DEBUG\ENVIRONMENTMAPPEDMODEL.OBJ
C:\USERS\R2D2\DOCUMENTS\UNI STUFF\YEAR 3\ADVANCED GAMES PROGRAMING\LABS\AGP2014 BASE CODE VS 2013\AGP2014 BASE CODE VS 2013\AGP2014 BASE CODE VS 2013\DEBUG\FRAMEBUFFEROBJECT.OBJ
C:\USERS\R2D2\DOCUMENTS\UNI STUFF\YEAR 3\ADVANCED GAMES PROGRAMING\LABS\AGP2014 BASE CODE VS 2013\AGP2014 BASE CODE VS 2013\AGP2014 BASE CODE VS 2013\DEBUG\FREECAMERA.OBJ
C:\USERS\R2D2\DOCUMENTS\UNI STUFF\YEAR 3\ADVANCED GAMES PROGRAMING\LABS\AGP2014 BASE CODE VS 2013\AGP2014 BASE CODE VS 2013\AGP2014 BASE CODE VS 2013\DEBUG\LIGHT.OBJ
C:\USERS\R2D2\DOCUMENTS\UNI STUFF\YEAR 3\ADVANCED GAMES PROGRAMING\LABS\AGP2014 BASE CODE VS 2013\AGP2014 BASE CODE VS 2013\AGP2014 BASE CODE VS 2013\DEBUG\MAIN.OBJ
C:\USERS\R2D2\DOCUMENTS\UNI STUFF\YEAR 3\ADVANCED GAMES PROGRAMING\LABS\AGP2014 BASE CODE VS 2013\AGP2014 BASE CODE VS 2013\AGP2014 BASE CODE VS 2013\DEBUG\MATERIAL.OBJ
C:\USERS\R2D2\DOCUMENTS\UNI STUFF\YEAR 3\ADVANCED GAMES PROGRAMING\LABS\AGP2014 BASE CODE VS 2013\AGP2014 BASE CODE VS 2013\AGP2014 BASE CODE VS 2013\DEBUG\MD2MODEL.OBJ
C:\USERS\R2D2\DOCUMENTS\UNI STUFF\YEAR 3\ADVANCED GAMES PROGRAMING\LABS\AGP2014 BASE CODE VS 2013\AGP2014 BASE CODE VS 2013\AGP2014 BASE CODE VS 2013\DEBUG\MODEL.OBJ
C:\USERS\R2D2\DOCUMENTS\UNI STUFF\YEAR 3\ADVANCED GAMES PROGRAMING\LABS\AGP2014 BASE CODE VS 2013\AGP2014 BASE CODE VS 2013\AGP2014 BASE CODE VS 2013\DEBUG\PARTICLESYSTEM.OBJ
C:\USERS\R2D2\DOCUMENTS\UNI STUFF\YEAR 3\ADVANCED GAMES PROGRAMING\LABS\AGP2014 BASE CODE VS 2013\AGP2014 BASE CODE VS 2013\AGP2014 BASE CODE VS 2013\DEBUG\PBOBUFFER.OBJ
C:\USERS\R2D2\DOCUMENTS\UNI STUFF\YEAR 3\ADVANCED GAMES PROGRAMING\LABS\AGP2014 BASE CODE VS 2013\AGP2014 BASE CODE VS 2013\AGP2014 BASE CODE VS 2013\DEBUG\RT3D.OBJ
C:\USERS\R2D2\DOCUMENTS\UNI STUFF\YEAR 3\ADVANCED GAMES PROGRAMING\LABS\AGP2014 BASE CODE VS 2013\AGP2014 BASE CODE VS 2013\AGP2014 BASE CODE VS 2013\DEBUG\RT3DOBJLOADER.OBJ
C:\USERS\R2D2\DOCUMENTS\UNI STUFF\YEAR 3\ADVANCED GAMES PROGRAMING\LABS\AGP2014 BASE CODE VS 2013\AGP2014 BASE CODE VS 2013\AGP2014 BASE CODE VS 2013\DEBUG\SHADER.OBJ
C:\USERS\R2D2\DOCUMENTS\UNI STUFF\YEAR 3\ADVANCED GAMES PROGRAMING\LABS\AGP2014 BASE CODE VS 2013\AGP2014 BASE CODE VS 2013\AGP2014 BASE CODE VS 2013\DEBUG\SKYBOX.OBJ
C:\USERS\R2D2\DOCUMENTS\UNI STUFF\YEAR 3\ADVANCED GAMES PROGRAMING\LABS\AGP2014 BASE CODE VS 2013\AGP2014 BASE CODE VS 2013\AGP2014 BASE CODE VS 2013\DEBUG\TEXTURE.OBJ
^C:\USERS\R2D2\DOCUMENTS\UNI STUFF\YEAR 3\ADVANCED GAMES PROGRAMING\LABS\AGP2014 BASE CODE VS 2013\AGP2014 BASE CODE VS 2013\AGP2014 BASE CODE VS 2013\CUBEMAP.CPP
C:\USERS\R2D2\DOCUMENTS\UNI STUFF\YEAR 3\ADVANCED GAMES PROGRAMING\LABS\AGP2014 BASE CODE VS 2013\AGP2014 BASE CODE VS 2013\AGP2014 BASE CODE VS 2013\DEBUG\VC120.PDB
^C:\USERS\R2D2\DOCUMENTS\UNI STUFF\YEAR 3\ADVANCED GAMES PROGRAMING\LABS\AGP2014 BASE CODE VS 2013\AGP2014 BASE CODE VS 2013\AGP2014 BASE CODE VS 2013\ENVIRONMENTMAPPEDMODEL.CPP
C:\USERS\R2D2\DOCUMENTS\UNI STUFF\YEAR 3\ADVANCED GAMES PROGRAMING\LABS\AGP2014 BASE CODE VS 2013\AGP2014 BASE CODE VS 2013\AGP2014 BASE CODE VS 2013\DEBUG\VC120.PDB
^C:\USERS\R2D2\DOCUMENTS\UNI STUFF\YEAR 3\ADVANCED GAMES PROGRAMING\LABS\AGP2014 BASE CODE VS 2013\AGP2014 BASE CODE VS 2013\AGP2014 BASE CODE VS 2013\FRAMEBUFFEROBJECT.CPP
C:\USERS\R2D2\DOCUMENTS\UNI STUFF\YEAR 3\ADVANCED GAMES PROGRAMING\LABS\AGP2014 BASE CODE VS 2013\AGP2014 BASE CODE VS 2013\AGP2014 BASE CODE VS 2013\DEBUG\VC120.PDB
^C:\USERS\R2D2\DOCUMENTS\UNI STUFF\YEAR 3\ADVANCED GAMES PROGRAMING\LABS\AGP2014 BASE CODE VS 2013\AGP2014 BASE CODE VS 2013\AGP2014 BASE CODE VS 2013\FREECAMERA.CPP
C:\USERS\R2D2\DOCUMENTS\UNI STUFF\YEAR 3\ADVANCED GAMES PROGRAMING\LABS\AGP2014 BASE CODE VS 2013\AGP2014 BASE CODE VS 2013\AGP2014 BASE CODE VS 2013\DEBUG\VC120.PDB
^C:\USERS\R2D2\DOCUMENTS\UNI STUFF\YEAR 3\ADVANCED GAMES PROGRAMING\LABS\AGP2014 BASE CODE VS 2013\AGP2014 BASE CODE VS 2013\AGP2014 BASE CODE VS 2013\LIGHT.CPP
C:\USERS\R2D2\DOCUMENTS\UNI STUFF\YEAR 3\ADVANCED GAMES PROGRAMING\LABS\AGP2014 BASE CODE VS 2013\AGP2014 BASE CODE VS 2013\AGP2014 BASE CODE VS 2013\DEBUG\VC120.PDB
^C:\USERS\R2D2\DOCUMENTS\UNI STUFF\YEAR 3\ADVANCED GAMES PROGRAMING\LABS\AGP2014 BASE CODE VS 2013\AGP2014 BASE CODE VS 2013\AGP2014 BASE CODE VS 2013\MAIN.CPP
C:\USERS\R2D2\DOCUMENTS\UNI STUFF\YEAR 3\ADVANCED GAMES PROGRAMING\LABS\AGP2014 BASE CODE VS 2013\AGP2014 BASE CODE VS 2013\AGP2014 BASE CODE VS 2013\DEBUG\VC120.PDB
C:\USERS\R2D2\DOCUMENTS\UNI STUFF\YEAR 3\ADVANCED GAMES PROGRAMING\LABS\AGP2014 BASE CODE VS 2013\AGP2014 BASE CODE VS 2013\AGP2014 BASE CODE VS 2013\DEBUG\VC120.IDB
C:\USERS\R2D2\DOCUMENTS\UNI STUFF\YEAR 3\ADVANCED GAMES PROGRAMING\LABS\AGP2014 BASE CODE VS 2013\AGP2014 BASE CODE VS 2013\AGP2014 BASE CODE VS 2013\DEBUG\MAIN.OBJ
^C:\USERS\R2D2\DOCUMENTS\UNI STUFF\YEAR 3\ADVANCED GAMES PROGRAMING\LABS\AGP2014 BASE CODE VS 2013\AGP2014 BASE CODE VS 2013\AGP2014 BASE CODE VS 2013\MATERIAL.CPP
C:\USERS\R2D2\DOCUMENTS\UNI STUFF\YEAR 3\ADVANCED GAMES PROGRAMING\LABS\AGP2014 BASE CODE VS 2013\AGP2014 BASE CODE VS 2013\AGP2014 BASE CODE VS 2013\DEBUG\VC120.PDB
^C:\USERS\R2D2\DOCUMENTS\UNI STUFF\YEAR 3\ADVANCED GAMES PROGRAMING\LABS\AGP2014 BASE CODE VS 2013\AGP2014 BASE CODE VS 2013\AGP2014 BASE CODE VS 2013\MD2MODEL.CPP
C:\USERS\R2D2\DOCUMENTS\UNI STUFF\YEAR 3\ADVANCED GAMES PROGRAMING\LABS\AGP2014 BASE CODE VS 2013\AGP2014 BASE CODE VS 2013\AGP2014 BASE CODE VS 2013\DEBUG\VC120.PDB
^C:\USERS\R2D2\DOCUMENTS\UNI STUFF\YEAR 3\ADVANCED GAMES PROGRAMING\LABS\AGP2014 BASE CODE VS 2013\AGP2014 BASE CODE VS 2013\AGP2014 BASE CODE VS 2013\MODEL.CPP
C:\USERS\R2D2\DOCUMENTS\UNI STUFF\YEAR 3\ADVANCED GAMES PROGRAMING\LABS\AGP2014 BASE CODE VS 2013\AGP2014 BASE CODE VS 2013\AGP2014 BASE CODE VS 2013\DEBUG\VC120.PDB
^C:\USERS\R2D2\DOCUMENTS\UNI STUFF\YEAR 3\ADVANCED GAMES PROGRAMING\LABS\AGP2014 BASE CODE VS 2013\AGP2014 BASE CODE VS 2013\AGP2014 BASE CODE VS 2013\PARTICLESYSTEM.CPP
C:\USERS\R2D2\DOCUMENTS\UNI STUFF\YEAR 3\ADVANCED GAMES PROGRAMING\LABS\AGP2014 BASE CODE VS 2013\AGP2014 BASE CODE VS 2013\AGP2014 BASE CODE VS 2013\DEBUG\VC120.PDB
C:\USERS\R2D2\DOCUMENTS\UNI STUFF\YEAR 3\ADVANCED GAMES PROGRAMING\LABS\AGP2014 BASE CODE VS 2013\AGP2014 BASE CODE VS 2013\AGP2014 BASE CODE VS 2013\DEBUG\VC120.IDB
C:\USERS\R2D2\DOCUMENTS\UNI STUFF\YEAR 3\ADVANCED GAMES PROGRAMING\LABS\AGP2014 BASE CODE VS 2013\AGP2014 BASE CODE VS 2013\AGP2014 BASE CODE VS 2013\DEBUG\PARTICLESYSTEM.OBJ
^C:\USERS\R2D2\DOCUMENTS\UNI STUFF\YEAR 3\ADVANCED GAMES PROGRAMING\LABS\AGP2014 BASE CODE VS 2013\AGP2014 BASE CODE VS 2013\AGP2014 BASE CODE VS 2013\PBOBUFFER.CPP
C:\USERS\R2D2\DOCUMENTS\UNI STUFF\YEAR 3\ADVANCED GAMES PROGRAMING\LABS\AGP2014 BASE CODE VS 2013\AGP2014 BASE CODE VS 2013\AGP2014 BASE CODE VS 2013\DEBUG\VC120.PDB
^C:\USERS\R2D2\DOCUMENTS\UNI STUFF\YEAR 3\ADVANCED GAMES PROGRAMING\LABS\AGP2014 BASE CODE VS 2013\AGP2014 BASE CODE VS 2013\AGP2014 BASE CODE VS 2013\RT3D.CPP
C:\USERS\R2D2\DOCUMENTS\UNI STUFF\YEAR 3\ADVANCED GAMES PROGRAMING\LABS\AGP2014 BASE CODE VS 2013\AGP2014 BASE CODE VS 2013\AGP2014 BASE CODE VS 2013\DEBUG\VC120.PDB
^C:\USERS\R2D2\DOCUMENTS\UNI STUFF\YEAR 3\ADVANCED GAMES PROGRAMING\LABS\AGP2014 BASE CODE VS 2013\AGP2014 BASE CODE VS 2013\AGP2014 BASE CODE VS 2013\RT3DOBJLOADER.CPP
C:\USERS\R2D2\DOCUMENTS\UNI STUFF\YEAR 3\ADVANCED GAMES PROGRAMING\LABS\AGP2014 BASE CODE VS 2013\AGP2014 BASE CODE VS 2013\AGP2014 BASE CODE VS 2013\DEBUG\VC120.PDB
^C:\USERS\R2D2\DOCUMENTS\UNI STUFF\YEAR 3\ADVANCED GAMES PROGRAMING\LABS\AGP2014 BASE CODE VS 2013\AGP2014 BASE CODE VS 2013\AGP2014 BASE CODE VS 2013\SHADER.CPP
C:\USERS\R2D2\DOCUMENTS\UNI STUFF\YEAR 3\ADVANCED GAMES PROGRAMING\LABS\AGP2014 BASE CODE VS 2013\AGP2014 BASE CODE VS 2013\AGP2014 BASE CODE VS 2013\DEBUG\VC120.PDB
^C:\USERS\R2D2\DOCUMENTS\UNI STUFF\YEAR 3\ADVANCED GAMES PROGRAMING\LABS\AGP2014 BASE CODE VS 2013\AGP2014 BASE CODE VS 2013\AGP2014 BASE CODE VS 2013\SKYBOX.CPP
C:\USERS\R2D2\DOCUMENTS\UNI STUFF\YEAR 3\ADVANCED GAMES PROGRAMING\LABS\AGP2014 BASE CODE VS 2013\AGP2014 BASE CODE VS 2013\AGP2014 BASE CODE VS 2013\DEBUG\VC120.PDB
^C:\USERS\R2D2\DOCUMENTS\UNI STUFF\YEAR 3\ADVANCED GAMES PROGRAMING\LABS\AGP2014 BASE CODE VS 2013\AGP2014 BASE CODE VS 2013\AGP2014 BASE CODE VS 2013\TEXTURE.CPP
C:\USERS\R2D2\DOCUMENTS\UNI STUFF\YEAR 3\ADVANCED GAMES PROGRAMING\LABS\AGP2014 BASE CODE VS 2013\AGP2014 BASE CODE VS 2013\AGP2014 BASE CODE VS 2013\DEBUG\VC120.PDB
^C:\USERS\R2D2\DOCUMENTS\UNI STUFF\YEAR 3\ADVANCED GAMES PROGRAMING\LABS\AGP2014 BASE CODE VS 2013\AGP2014 BASE CODE VS 2013\AGP2014 BASE CODE VS 2013\MAIN.CPP|C:\USERS\R2D2\DOCUMENTS\UNI STUFF\YEAR 3\ADVANCED GAMES PROGRAMING\LABS\AGP2014 BASE CODE VS 2013\AGP2014 BASE CODE VS 2013\AGP2014 BASE CODE VS 2013\PARTICLESYSTEM.CPP
C:\USERS\R2D2\DOCUMENTS\UNI STUFF\YEAR 3\ADVANCED GAMES PROGRAMING\LABS\AGP2014 BASE CODE VS 2013\AGP2014 BASE CODE VS 2013\AGP2014 BASE CODE VS 2013\DEBUG\VC120.PDB
C:\USERS\R2D2\DOCUMENTS\UNI STUFF\YEAR 3\ADVANCED GAMES PROGRAMING\LABS\AGP2014 BASE CODE VS 2013\AGP2014 BASE CODE VS 2013\AGP2014 BASE CODE VS 2013\DEBUG\VC120.IDB
C:\USERS\R2D2\DOCUMENTS\UNI STUFF\YEAR 3\ADVANCED GAMES PROGRAMING\LABS\AGP2014 BASE CODE VS 2013\AGP2014 BASE CODE VS 2013\AGP2014 BASE CODE VS 2013\DEBUG\PARTICLESYSTEM.OBJ
